…
city_logistic = homicide_data %>% 
  # nest the data by each city
  group_by(city_state) %>% 
  nest() %>% 
  # Apply the function `or_and_ci` to each city
  mutate(or_and_ci = map(.x = data, ~or_and_ci(.x))) %>% 
  select(-data) %>% 
  unnest()

city_logistic
## # A tibble: 47 x 5
##    city_state        OR conf.lower conf.upper    p.value
##    <chr>          <dbl>      <dbl>      <dbl>      <dbl>
##  1 Albuquerque,NM 0.741     0.451       1.22  0.238     
##  2 Atlanta,GA     0.753     0.432       1.31  0.317     
##  3 Baltimore,MD   0.441     0.313       0.620 0.00000268
##  4 Baton Rouge,LA 0.668     0.313       1.43  0.296     
##  5 Birmingham,AL  1.04      0.615       1.76  0.886     
##  6 Boston,MA      0.115     0.0472      0.278 0.00000172
##  7 Buffalo,NY     0.390     0.213       0.715 0.00231   
##  8 Charlotte,NC   0.558     0.321       0.969 0.0383    
##  9 Chicago,IL     0.562     0.431       0.733 0.0000207 
## 10 Cincinnati,OH  0.318     0.184       0.551 0.0000428 
## # ... with 37 more rows
```
…
